<?xml version="1.0" encoding="iso-8859-1"?>
<!-- Generator: Adobe Illustrator 16.0.0, SVG Export Plug-In . SVG Version: 6.00 Build 0)  -->
<!DOCTYPE svg PUBLIC "-//W3C//DTD SVG 1.1//EN" "http://www.w3.org/Graphics/SVG/1.1/DTD/svg11.dtd">
<svg version="1.1" id="Capa_1" xmlns="http://www.w3.org/2000/svg" xmlns:xlink="http://www.w3.org/1999/xlink" x="0px" y="0px"
	 width="270.564px" height="270.564px" viewBox="0 0 270.564 270.564" style="enable-background:new 0 0 270.564 270.564;"
	 xml:space="preserve">
<g>
	<path d="M5.262,125.142c1.167,0,2.346-0.39,3.323-1.184l23.626-19.311V224.86c0,2.905,2.351,5.256,5.256,5.256
		c2.904,0,5.256-2.351,5.256-5.256V96.05l86.738-70.894l95.99,71.568v128.128c0,2.902,2.351,5.257,5.257,5.257
		c2.905,0,5.256-2.354,5.256-5.257V104.567l26.197,19.534c0.944,0.702,2.043,1.041,3.141,1.041c1.605,0,3.187-0.729,4.22-2.118
		c1.735-2.327,1.253-5.619-1.074-7.354l-33.305-24.831c-0.678-1.075-1.731-1.865-2.98-2.225l-99.708-74.339
		c-0.1-0.072-0.207-0.117-0.307-0.181c-0.164-0.11-0.328-0.216-0.503-0.301c-0.15-0.072-0.303-0.13-0.457-0.185
		c-0.161-0.065-0.321-0.126-0.489-0.171c-0.169-0.048-0.34-0.075-0.512-0.103c-0.162-0.027-0.323-0.059-0.484-0.072
		c-0.171-0.014-0.34-0.007-0.512-0.003c-0.167,0.003-0.333,0.003-0.501,0.028c-0.167,0.017-0.328,0.058-0.494,0.089
		c-0.165,0.034-0.329,0.072-0.49,0.123c-0.172,0.055-0.333,0.13-0.498,0.198c-0.147,0.068-0.291,0.124-0.435,0.202
		c-0.173,0.092-0.337,0.212-0.498,0.329c-0.094,0.072-0.2,0.12-0.291,0.191L87.161,46.151V34.708c0-2.905-2.351-5.256-5.257-5.256
		H53.899c-2.906,0-5.257,2.351-5.257,5.256v42.924L1.93,115.812c-2.25,1.834-2.58,5.147-0.743,7.396
		C2.228,124.481,3.739,125.142,5.262,125.142z M59.159,39.964h17.492v14.78L59.159,69.039V39.964z" fill="#ffffff"/>
	<path d="M55.833,220.678c0,5.075,1.976,9.843,5.564,13.429c3.584,3.587,8.355,5.562,13.425,5.562c5.072,0,9.84-1.975,13.425-5.562
		l6.309-6.307c0.248,1.126,0.797,2.207,1.673,3.083l9.841,9.835c1.189,1.185,2.769,1.842,4.443,1.842
		c0.498,0,0.979-0.075,1.451-0.186c-0.113,0.473-0.187,0.952-0.187,1.451c0,1.678,0.655,3.255,1.841,4.438l7.193,7.194
		c1.185,1.193,2.766,1.854,4.451,1.854c1.679,0,3.26-0.657,4.447-1.845l38-37.993c1.188-1.188,1.841-2.771,1.838-4.452
		c0-1.68-0.657-3.258-1.838-4.435l-7.203-7.204c-1.181-1.184-2.807-1.779-4.436-1.783l7.402-7.401
		c0.147-0.147,0.291-0.302,0.417-0.462c1.533-1.305,2.358-3.275,2.188-5.291l-2.043-24.215c2.733,0.581,5.52,0.886,8.336,0.886l0,0
		c10.681,0,20.718-4.161,28.267-11.707c10.753-10.745,14.459-26.398,9.679-40.854c-0.381-1.157-1.335-2.03-2.516-2.311
		c-1.178-0.277-2.43,0.069-3.285,0.931l-20.578,20.574l-18.191-18.185l20.577-20.581c0.862-0.862,1.212-2.108,0.931-3.289
		c-0.284-1.184-1.156-2.135-2.31-2.519c-4.062-1.342-8.296-2.022-12.587-2.022c-10.681,0-20.718,4.158-28.264,11.7
		c-10.381,10.376-14.204,25.755-10.034,39.731l-20.175,20.174l-6.986-6.972c-2.377-2.382-6.516-2.375-8.888,0l-6.557,6.554
		c-0.719,0.719-1.198,1.574-1.496,2.484c-0.902,0.291-1.745,0.753-2.437,1.444l-6.542,6.543c-0.712,0.712-1.206,1.571-1.511,2.495
		c-0.896,0.291-1.742,0.756-2.425,1.44l-6.553,6.55c-0.722,0.723-1.203,1.581-1.5,2.492c-0.897,0.287-1.74,0.752-2.432,1.44
		l-6.554,6.554c-2.448,2.446-2.448,6.43,0,8.887l6.985,6.981l-5.604,5.599C57.809,210.839,55.833,215.606,55.833,220.678z
		 M162.234,213.04l-36.971,36.963l-6.177-6.178l36.968-36.973L162.234,213.04z M158.515,187.25l-48.004,48l-8.813-8.815
		l47.606-47.606c0.729-0.729,1.102-1.745,1.016-2.775l-0.476-5.595c-0.147-1.701-1.495-3.046-3.196-3.189l-16.505-1.39l0.659-7.789
		l25.182,2.129c0.243,0.342,0.564,0.66,0.883,0.896c0.01,0.007,0.023,0.018,0.041,0.027l2.146,25.475
		C158.844,186.785,158.689,186.963,158.515,187.25z M140.535,138.029c0.961-0.962,1.279-2.389,0.817-3.668
		c-4.329-11.984-1.311-25.543,7.693-34.54c6.222-6.222,14.499-9.651,23.308-9.651c1.533,0,3.053,0.106,4.559,0.312l-18.606,18.61
		c-1.368,1.369-1.368,3.586,0,4.955l23.147,23.141c1.369,1.372,3.583,1.372,4.955,0l18.613-18.609
		c1.444,10.157-1.906,20.443-9.346,27.88c-6.229,6.225-14.506,9.657-23.315,9.657c-3.846,0-7.624-0.66-11.231-1.964
		c-0.567-0.205-1.177-0.254-1.752-0.161c-0.243-0.134-0.51-0.219-0.77-0.318c-0.131-0.048-0.243-0.116-0.377-0.153
		c-0.421-0.127-0.855-0.213-1.304-0.25l-26.273-2.218c-0.098-0.007-0.431-0.021-0.529-0.021c-3.239,0-5.989,2.529-6.259,5.756
		l-0.619,7.361l-4.42-4.418L140.535,138.029z M102.455,153.255l8.946,8.949l8.673,8.671l-5.53,5.527l-17.616-17.617L102.455,153.255
		z M91.973,163.736l17.615,17.618l-5.525,5.526l-17.617-17.617L91.973,163.736z M81.492,174.219l17.612,17.614l-2.805,2.81
		l-2.715,2.717l-8.809-8.809l-8.811-8.809L81.492,174.219z M65.483,190.225l5.527-5.523l8.837,8.836l8.778,8.777l-5.525,5.527
		l-8.67-8.669c0,0-0.003,0-0.003-0.003L65.483,190.225z M66.349,212.208l5.604-5.599l6.704,6.701
		c1.184,1.19,2.765,1.844,4.447,1.844c1.679,0,3.254-0.653,4.444-1.837l6.552-6.554c0.333-0.335,0.611-0.694,0.852-1.078
		c0.077-0.123,0.133-0.253,0.2-0.38c0.144-0.267,0.28-0.534,0.381-0.814c0.017-0.051,0.053-0.096,0.07-0.147
		c0.06-0.021,0.111-0.058,0.171-0.078c0.281-0.106,0.548-0.24,0.81-0.384c0.13-0.071,0.264-0.126,0.387-0.205
		c0.378-0.243,0.736-0.517,1.061-0.842l6.547-6.554c0.325-0.321,0.599-0.681,0.84-1.058c0.077-0.123,0.137-0.256,0.207-0.383
		c0.147-0.267,0.281-0.534,0.385-0.814c0.022-0.059,0.06-0.106,0.079-0.164c0.058-0.021,0.108-0.059,0.168-0.075
		c0.28-0.106,0.545-0.24,0.809-0.387c0.13-0.069,0.264-0.127,0.385-0.206c0.375-0.242,0.732-0.52,1.056-0.842l6.555-6.553
		c0.323-0.325,0.601-0.685,0.842-1.058c0.077-0.123,0.133-0.254,0.204-0.38c0.147-0.268,0.284-0.534,0.388-0.821
		c0.021-0.059,0.057-0.106,0.074-0.161c0.06-0.021,0.109-0.059,0.164-0.079c0.284-0.105,0.551-0.239,0.818-0.386
		c0.125-0.069,0.258-0.127,0.378-0.202c0.375-0.243,0.732-0.517,1.058-0.842l6.557-6.554c0.368-0.369,0.662-0.783,0.922-1.215
		c0.077-0.13,0.14-0.264,0.21-0.397c0.164-0.328,0.298-0.66,0.402-1.013c0.027-0.086,0.081-0.164,0.101-0.253
		c0.05,0.017,0.109,0.017,0.159,0.034c0.479,0.164,0.974,0.291,1.489,0.332l9.968,0.842l-55.504,55.5
		c-4.527,4.524-12.416,4.524-16.939,0c-2.264-2.265-3.511-5.27-3.511-8.47C62.841,217.479,64.089,214.467,66.349,212.208z" fill="#ffffff"/>
</g>
<g>
</g>
<g>
</g>
<g>
</g>
<g>
</g>
<g>
</g>
<g>
</g>
<g>
</g>
<g>
</g>
<g>
</g>
<g>
</g>
<g>
</g>
<g>
</g>
<g>
</g>
<g>
</g>
<g>
</g>
</svg>
